Which MLB pitcher has had the most dominate season between 2015-2019 - Zachary Everts' GitHub Site
…
## # A tibble: 1 x 5
##   mean_fip mean_babip mean_exvelo mean_whiff mean_k
##      <dbl>      <dbl>       <dbl>      <dbl>  <dbl>
## 1     3.93      0.292        88.1       23.8   175.

top_pitchers <- pitchers %>% filter(
  BABIP <= .29241, FIP <= 3.93, EV <= 88.125, `WHIFF%` >= 23.77, Strikeouts >= 174
)
top_pitchers

## # A tibble: 44 x 47
##    last_name first_name player_id  year p_formatted_ip  p_ab p_total_hits
##    <chr>     <chr>          <dbl> <dbl>          <dbl> <dbl>        <dbl>
##  1 Greinke   Zack          425844  2019           208.   767          175
##  2 Verlander Justin        434378  2019           223    796          137
##  3 Cole      Gerrit        543037  2019           212.   762          142
##  4 Gray      Sonny         543243  2019           175.   622          122
##  5 Strasburg Stephen       544931  2019           209    768          161
##  6 deGrom    Jacob         594798  2019           204    745          154
##  7 Giolito   Lucas         608337  2019           176.   640          131
##  8 Castillo  Luis          622491  2019           190.   688          139
##  9 Flaherty  Jack          656427  2019           196.   704          135
## 10 Greinke   Zack          425844  2017           202.   749          172
## # … with 34 more rows, and 40 more variables: p_home_run <dbl>,
## #   p_strikeout <dbl>, p_walk <dbl>, p_k_percent <dbl>, p_bb_percent <dbl>,
## #   p_earned_run <dbl>, p_save <dbl>, p_win <dbl>, p_era <dbl>,
## #   p_opp_batting_avg <dbl>, p_quality_start <dbl>, p_hit_by_pitch <dbl>,
## #   p_sac_fly <dbl>, xba <dbl>, xslg <dbl>, xobp <dbl>, xiso <dbl>,
## #   exit_velocity_avg <dbl>, sweet_spot_percent <dbl>,
## #   barrel_batted_rate <dbl>, solidcontact_percent <dbl>,
## #   hard_hit_percent <dbl>, whiff_percent <dbl>, n_fastball_formatted <dbl>,
## #   fastball_avg_speed <dbl>, fastball_avg_spin <dbl>,
…
I took the adjusted r-squared values for each correlation and added them as the weight for each z-score. The two largest correlations were unsurprisingly strikeouts and FIP. With the scores weighted I then added all of the totals and to find the overall rankings. For a more accurate and complete comparison, I split the dataset up into years and plotted them.

pitcher_zscore <- pitcher_ability %>% mutate(
  FIPz = as.numeric(scale(FIP, center = TRUE, scale = TRUE)) * -1,
  BABIPz = as.numeric(scale(BABIP, center = TRUE, scale = TRUE)) *-1,
  EVz = as.numeric(scale(EV, center = TRUE, scale = TRUE)) * -1,
  WHIFFz = as.numeric(scale(`WHIFF%`, center = TRUE, scale = TRUE)),
  Kz = as.numeric(scale(Strikeouts, center = TRUE, scale = TRUE)),
  TotalZscore = .352098*FIPz + .094688*BABIPz + .117798*EVz + .325698*Kz + .109218*WHIFFz
  ) 
pitcher_zscore %>% arrange(desc(TotalZscore))

## # A tibble: 44 x 14
##    last_name first_name  year   FIP BABIP    EV `WHIFF%` Strikeouts   FIPz
##    <chr>     <chr>      <dbl> <dbl> <dbl> <dbl>    <dbl>      <dbl>  <dbl>
##  1 Kershaw   Clayton     2015  2.02 0.283  85.6     32.5        301  2.37 
##  2 Cole      Gerrit      2019  2.59 0.276  87.6     37.2        326  1.17 
##  3 deGrom    Jacob       2018  1.99 0.283  86.1     31          269  2.43 
##  4 Kluber    Corey       2017  2.51 0.268  85.3     33.6        265  1.35 
##  5 Scherzer  Max         2018  2.66 0.267  86.6     33          300  1.03 
##  6 Verlander Justin      2019  3.22 0.219  87.3     33.6        300 -0.149
##  7 Arrieta   Jake        2015  2.38 0.247  85.1     25          236  1.61 
##  8 Scherzer  Max         2017  2.91 0.248  86.5     32.1        268  0.508
##  9 Scherzer  Max         2015  2.80 0.273  87.1     30.7        276  0.736
## 10 deGrom    Jacob       2019  2.63 0.285  86.6     31.2        255  1.09 
## # … with 34 more rows, and 5 more variables: BABIPz <dbl>, EVz <dbl>,
## #   WHIFFz <dbl>, Kz <dbl>, TotalZscore <dbl>
…
