Did the 2019 Colorado Rockies really lack pitching talent? - Zachary Everts' GitHub Site
…
Correlation$predicted <- predict(fit)

Correlation$residuals <- residuals(fit) 

It almost goes without saying but there is a strong correlation between the number of hits a pitcher allows and their subsequent ERA’s. I mean, you can’t score without hitting the ball. According to my correlation, 58% of all ERA’s can be predicted using hits to determine ERA. I’m going to use this correlation to create a model that will predict Colorado’s ERA based on hits allowed per game.

Correlation %>% 
  arrange(desc(residuals)) %>% 
  select(Opp, Rslt, era, H, residuals, predicted)

## # A tibble: 162 x 6
##    Opp   Rslt      era     H residuals predicted
##    <chr> <chr>   <dbl> <dbl>     <dbl>     <dbl>
##  1 HOU   L,3-14   15.8    12      8.39      7.36
##  2 LAD   L,5-12   13.5    13      5.40      8.10
##  3 SDP   L,13-14  14      15      4.41      9.59
##  4 HOU   L,6-11   12.4    13      4.27      8.10
##  5 CHC   L,8-9    10.1    10      4.26      5.87
##  6 SDP   W,11-10  10      10      4.13      5.87
##  7 SFG   L,2-19   18      21      3.94     14.1 
##  8 PIT   L,6-14   13.5    15      3.91      9.59
##  9 SFG   W,12-11   9       9      3.88      5.12
## 10 ARI   L,0-8     9       9      3.88      5.12
## # … with 152 more rows
…
