Did the 2019 Rockies really lack pitching talent? - Zachary Everts' GitHub Site
…
Correlation$predicted <- predict(fit)

Correlation$residuals <- residuals(fit) 

(.74447 * 1) -1.57598 #Plug in number of hits to predict ERA

## [1] -0.83151

Correlation %>% 
  arrange(desc(residuals)) %>% 
  select(Opp, Rslt, era, H, residuals, predicted)

## # A tibble: 162 x 6
##    Opp   Rslt      era     H residuals predicted
##    <chr> <chr>   <dbl> <dbl>     <dbl>     <dbl>
##  1 HOU   L,3-14   15.8    12      8.39      7.36
##  2 LAD   L,5-12   13.5    13      5.40      8.10
##  3 SDP   L,13-14  14      15      4.41      9.59
##  4 HOU   L,6-11   12.4    13      4.27      8.10
##  5 CHC   L,8-9    10.1    10      4.26      5.87
##  6 SDP   W,11-10  10      10      4.13      5.87
##  7 SFG   L,2-19   18      21      3.94     14.1 
##  8 PIT   L,6-14   13.5    15      3.91      9.59
##  9 SFG   W,12-11   9       9      3.88      5.12
## 10 ARI   L,0-8     9       9      3.88      5.12
## # … with 152 more rows
…
correlation2$predicted <- predict(fit)

correlation2$residuals <- residuals(fit)

(-22.757 * 10 )+ 183 #Plug in ERA to get number of wins

## [1] -44.57

correlation2 %>% 
  arrange(desc(residuals)) %>% 
  select(Tm, W, ERA, residuals, predicted)

## # A tibble: 30 x 5
##    Tm        W   ERA residuals predicted
##    <chr> <dbl> <dbl>     <dbl>     <dbl>
##  1 NYY     103  4.31     17.8       85.2
##  2 COL      71  5.56     14.2       56.8
##  3 MIN     101  4.18     12.8       88.2
##  4 TEX      78  5.06      9.85      68.2
##  5 ATL      97  4.19      9.05      88.0
##  6 BOS      84  4.7       7.65      76.3
##  7 HOU     107  3.66      6.99     100. 
##  8 WSN      93  4.27      6.87      86.1
##  9 MIL      89  4.4       5.83      83.2
## 10 LAA      72  5.12      5.21      66.8
## # … with 20 more rows
…
